{
    "common_error_no_account": "A fiók nem létezik.",
    "common_error_email_password_chars": "A jelszó legalább 8 karaktert és legalább egy betűt és egy számot kell tartalmazzon.",
    "common_error_password_mismatch": "A jelszavak nem egyeznek.",
    "common_error_no_email": "Kérem, adja meg az email címét.",
    "common_error_email_invalid": "Kérem valós email címet adjon meg.",
    "register_success": "A fiók sikeresen létrehozva. Az email cím ellenőrzésére szolgáló linket elküldtük az email fiókjába.",
    "register_error_email_exists": "Ezzel az email címmel már létezik fiók.",
    "login_error_no_email_password": "Kérem adja meg email címét és jelszavát.",
    "login_error_password_incorrect": "A jelszó érvénytelen.",
    "password_reset_success": "A jelszó visszaállítására vonatkozó utasításokat elküldtük az email címére.",
    "password_set_success": "A jelszó beállítása sikeresen megtörtént. Most már bejelentkezhet.",
    "password_set_error_link_invalid": "Nem lehet visszaállítani a jelszót. A jelszó visszaállítására mutató hivatkozás érvénytelen.",
    "track_update_error_no_name": "A névtelen útvonal nem frissíthető.",
    "track_update_error_update_track": "Hiba az útvonal frissítése közben.",
    "track_update_error_add_track": "Hiba az útvonal hozzáadása közben.",
    "track_delete_error_delete_track": "Hiba az útvonal törlése közben.",
    "waypoint_update_error_no_name": "A névtelen útvonalpont nem frissíthető.",
    "waypoint_update_error_add_waypoint": "Hiba az útvonalpont hozzáadása közben.",
    "waypoint_update_error_update_waypoint": "Hiba az útvonalpont frissítése közben.",
    "waypoint_delete_error_delete_waypoint": "Hiba az útvonalpont törlése közben.",
    "import_tracks_file_success": "Importált útvonalak: {{trk}}, útvonalpontok: {{wpt}}.",
    "newsletter_subscribe_error": "Nem lehet felíratkozni a hírlevélre, kérem próbálja később.",
    "newsletter_unsubscribe_error": "Nem lehet leíratkozni a hírlevélről, kérem próbálja később.",
    "login_error_email_not_verified": "Az email cím nincs visszaigazolva. A bejelentkezés előtt először igazolni kell az email címét. Az email cím ellenőrzésére szolgáló linket elküldtük az email fiókjába. Kérem, ellenőrizze azt is, hogy ez az ellenőrző email nincs-e a spam mappában.",
    "upload_image_error_ext": "A képet nem lehet feltölteni. A támogatott képtípusok a jpg, gif és png.",
    "upload_image_error_storage_size": "A képet nem lehet feltölteni. Nincs szabad tárhely a képek számára.",
    "not_found": "Nem található."
}
