{
    "common_error_password_mismatch": "Паролі не збігаються.",
    "common_error_email_invalid": "Будь ласка, введіть дійсну адресу електронної пошти.",
    "register_error_email_exists": "Обліковий запис з цією адресою електронної пошти вже існує.",
    "login_error_no_email_password": "Будь ласка, введіть свій e-mail та пароль.",
    "login_error_email_not_verified": "Вашу адресу електронної пошти не перевірено. Перед входом в систему необхідно спочатку підтвердити адресу електронної пошти. Посилання для перевірки адреси електронної пошти надіслано на ваш обліковий запис електронної пошти.",
    "login_error_password_incorrect": "Пароль неправильний.",
    "password_reset_success": "Інструкції щодо скидання пароля були надіслані на вашу електронну адресу.",
    "common_error_no_email": "Будь ласка, введіть свою адресу електронної пошти.",
    "password_set_success": "Пароль успішно встановлено. Тепер ви можете увійти за допомогою нового пароля.",
    "password_set_error_link_invalid": "Не вдається скинути пароль. Посилання для скидання пароля недійсне.",
    "track_update_error_no_name": "Не вдається оновити доріжку без назви.",
    "track_update_error_add_track": "Помилка при додаванні треку.",
    "track_update_error_update_track": "Помилка при оновленні треку.",
    "track_delete_error_delete_track": "Помилка при видаленні треку.",
    "waypoint_update_error_no_name": "Не вдається оновити маршрутну точку без назви.",
    "waypoint_update_error_add_waypoint": "Помилка при додаванні маршрутної точки.",
    "waypoint_update_error_update_waypoint": "Помилка під час оновлення маршрутної точки.",
    "waypoint_delete_error_delete_waypoint": "Помилка при видаленні маршрутної точки.",
    "common_error_no_account": "Цього облікового запису не існує.",
    "common_error_email_password_chars": "Пароль повинен містити не менше 8 символів і не менше однієї літери і однієї цифри.",
    "register_success": "Обліковий запис успішно створено. Посилання для перевірки адреси електронної пошти надіслано на ваш обліковий запис електронної пошти.",
    "import_tracks_file_success": "Імпортовані треки: {{trk}}, шляхові точки: {{wpt}}.",
    "newsletter_subscribe_error": "Не вдається підписатися на інформаційний бюлетень, спробуйте пізніше.",
    "newsletter_unsubscribe_error": "Не вдається скасувати підписку на інформаційний бюлетень, спробуйте пізніше."
}
