{
    "common_error_no_account": "Esta conta não existe.",
    "common_error_password_mismatch": "As senhas não correspondem.",
    "common_error_email_invalid": "Por favor insira um endereço de e-mail válido.",
    "register_success": "Conta criada com sucesso. Link para verificar seu endereço de e-mail foi enviado para sua conta de e-mail.",
    "register_error_email_exists": "Já existe uma conta com este endereço de e-mail.",
    "login_error_password_incorrect": "Senha está incorreta.",
    "password_reset_success": "As instruções para redefinir sua senha foram enviadas para seu endereço de e-mail.",
    "common_error_no_email": "Por favor, informe o seu endereço de e-mail.",
    "track_update_error_no_name": "Não é possível atualizar trilha sem nome.",
    "track_update_error_add_track": "Erro ao adicionar faixa.",
    "track_delete_error_delete_track": "Erro ao excluir a trilha.",
    "waypoint_update_error_add_waypoint": "Erro ao adicionar ponto de referência.",
    "waypoint_delete_error_delete_waypoint": "Erro ao excluir ponto de referência.",
    "common_error_email_password_chars": "A senha deve conter pelo menos 8 caracteres e pelo menos uma letra e um número.",
    "login_error_no_email_password": "Por favor entre com seu e-mail e senha.",
    "login_error_email_not_verified": "Seu endereço de e-mail não foi verificado. Antes de fazer o login, você deve primeiro verificar o seu endereço de e-mail. Link para verificar seu endereço de e-mail foi enviado para sua conta de e-mail. Por favor, verifique também se este e-mail de verificação não está na pasta de spam.",
    "password_set_success": "A senha foi definida com sucesso. Agora você pode fazer login com sua nova senha.",
    "password_set_error_link_invalid": "Não é possível redefinir a senha. O link para redefinir a senha não é válido.",
    "track_update_error_update_track": "Erro ao atualizar a trilha.",
    "waypoint_update_error_no_name": "Não é possível atualizar ponto de via sem nome.",
    "waypoint_update_error_update_waypoint": "Erro ao atualizar ponto de referência.",
    "import_tracks_file_success": "Trilhas: {{trk}}, pontos de via: {{wpt}} importados.",
    "newsletter_subscribe_error": "Não é possível assinar um boletim informativo. Tente novamente mais tarde.",
    "newsletter_unsubscribe_error": "Não é possível cancelar a assinatura de um boletim informativo. Tente novamente mais tarde.",
    "upload_image_error_storage_size": "Não é possível carregar a imagem. Não há espaço de armazenamento livre para imagens.",
    "upload_image_error_ext": "Não é possível carregar a imagem. Os tipos de imagem suportados são jpg, gif e png.",
    "not_found": "Não encontrado."
}
