{
    "common_error_password_mismatch": "As senhas não coincidem.",
    "common_error_email_invalid": "Por favor insira um endereço de e-mail válido.",
    "register_success": "Conta criada com sucesso. Foi enviado um link de validação para a sua conta de e-mail.",
    "register_error_email_exists": "Já existe uma conta com este endereço de e-mail.",
    "login_error_no_email_password": "Por favor aceda com seu e-mail e senha.",
    "login_error_password_incorrect": "A senha está incorreta.",
    "password_reset_success": "As instruções para redefinir a sua senha foram enviadas para o seu endereço de e-mail.",
    "common_error_no_email": "Por favor, introduza o seu endereço de e-mail.",
    "password_set_success": "A senha foi definida com sucesso. Agora já pode fazer login com a sua nova senha.",
    "password_set_error_link_invalid": "Não é possível redefinir a senha. O link para redefinir a senha não é válido.",
    "track_update_error_no_name": "Não é possível atualizar um trilho sem nome.",
    "track_update_error_add_track": "Erro ao adicionar trilho.",
    "track_update_error_update_track": "Erro ao actualizar trilho.",
    "track_delete_error_delete_track": "Erro ao apagar trilho.",
    "waypoint_update_error_no_name": "Não é possível actualizar um ponto de referência sem nome.",
    "waypoint_update_error_add_waypoint": "Erro ao adicionar ponto de referência.",
    "waypoint_update_error_update_waypoint": "Erro ao actualizar ponto de referência.",
    "waypoint_delete_error_delete_waypoint": "Erro ao apagar ponto de referência.",
    "import_tracks_file_success": "Trilhos importados: {{trk}}, pontos de referência: {{wpt}}.",
    "common_error_no_account": "Esta conta não existe.",
    "common_error_email_password_chars": "A senha deve conter pelo menos 8 caracteres e pelo menos uma letra e um número.",
    "login_error_email_not_verified": "O seu endereço de e-mail não foi validado. Antes de fazer login, deve primeiro validar o seu endereço de e-mail. Foi enviado um link de validação para a sua conta de e-mail."
}
