{
    "common_error_no_account": "Bu hesap mevcut değil.",
    "common_error_email_invalid": "Lütfen geçerli bir e-posta adresi girin.",
    "register_error_email_exists": "Bu e-posta adresine sahip hesap zaten var.",
    "register_success": "Hesap başarıyla oluşturuldu. E-posta adresinizi doğrulamak için kullanılacak link e-posta hesabınıza gönderildi.",
    "login_error_password_incorrect": "Parola yanlış.",
    "common_error_email_password_chars": "Parola en az 8 karakter, en az bir harf ve bir rakam içermelidir.",
    "common_error_password_mismatch": "Parolalar birbiriyle uyuşmuyor.",
    "login_error_no_email_password": "Lütfen e-posta adresinizi ve parolanızı giriniz.",
    "password_reset_success": "Parolanızı sıfırlama talimatları e-posta adresinize gönderildi.",
    "common_error_no_email": "Lütfen e-mail adresinizi giriniz.",
    "password_set_success": "Parola başarıyla ayarlandı. Artık yeni parolanızla giriş yapabilirsiniz.",
    "password_set_error_link_invalid": "Parola sıfırlanamıyor. Parola sıfırlama bağlantısı geçerli değil.",
    "track_update_error_no_name": "Adsız iz güncellenemiyor.",
    "track_update_error_add_track": "İz eklenirken hata oluştu.",
    "track_update_error_update_track": "İz güncellenirken hata oluştu.",
    "track_delete_error_delete_track": "İz silinirken hata oluştu.",
    "waypoint_update_error_no_name": "Adsız yer işareti güncellenemiyor.",
    "waypoint_update_error_add_waypoint": "Yer işareti eklenirken hata oluştu.",
    "waypoint_update_error_update_waypoint": "Yer işareti güncellenirken hata oluştu.",
    "waypoint_delete_error_delete_waypoint": "Yer işareti silinirken hata oluştu.",
    "login_error_email_not_verified": "E-posta adresiniz doğrulanmadı. Giriş yapmadan önce e-posta adresinizi doğrulamanız gerekir. E-posta adresinizi doğrulamak için kullanılacak link e-posta hesabınıza gönderildi.",
    "import_tracks_file_success": "İçe aktarılan izler: {{trk}}, yer işaretleri: {{wpt}}."
}
